C:\Users\gabri\control-de-calidad-y-produccion\Sistema_Control_y_Produccion\src\main\java\gui\Instrumentacion.java
C:\Users\gabri\control-de-calidad-y-produccion\Sistema_Control_y_Produccion\src\main\java\gui\Inspeccion.java
C:\Users\gabri\control-de-calidad-y-produccion\Sistema_Control_y_Produccion\src\main\java\gui\LoginScreen.java
C:\Users\gabri\control-de-calidad-y-produccion\Sistema_Control_y_Produccion\src\main\java\gui\TableButtons.java
C:\Users\gabri\control-de-calidad-y-produccion\Sistema_Control_y_Produccion\src\main\java\gui\AtributosControl.java
C:\Users\gabri\control-de-calidad-y-produccion\Sistema_Control_y_Produccion\src\main\java\gui\MainWindow.java
C:\Users\gabri\control-de-calidad-y-produccion\Sistema_Control_y_Produccion\src\main\java\objects\Instrumentos.java
C:\Users\gabri\control-de-calidad-y-produccion\Sistema_Control_y_Produccion\src\main\java\program\App.java
C:\Users\gabri\control-de-calidad-y-produccion\Sistema_Control_y_Produccion\src\main\java\gui\Conexion.java
C:\Users\gabri\control-de-calidad-y-produccion\Sistema_Control_y_Produccion\src\main\java\utilities\gestionCeldas.java
C:\Users\gabri\control-de-calidad-y-produccion\Sistema_Control_y_Produccion\src\main\java\gui\SalidaMercancia.java
